densenoise_fr120_sq6_std60_0101.tex ?
densenoise_fr120_sq6_std60_0102.tex ?
densenoise_fr120_sq6_std60_0103.tex ?
densenoise_fr120_sq6_std60_0104.tex ?
densenoise_fr120_sq6_std60_0105.tex ?
densenoise_fr120_sq6_std60_0106.tex ?
densenoise_fr120_sq6_std60_0107.tex ?
densenoise_fr120_sq6_std60_0108.tex ?
densenoise_fr120_sq6_std60_0109.tex ?
densenoise_fr120_sq6_std60_0110.tex ?
densenoise_fr120_sq6_std60_0111.tex ?
densenoise_fr120_sq6_std60_0112.tex ?
densenoise_fr120_sq6_std60_0113.tex ?
densenoise_fr120_sq6_std60_0114.tex ?
densenoise_fr120_sq6_std60_0115.tex ?
densenoise_fr120_sq6_std60_0116.tex ?
densenoise_fr120_sq6_std60_0117.tex ?
densenoise_fr120_sq6_std60_0118.tex ?
densenoise_fr120_sq6_std60_0119.tex ?
densenoise_fr120_sq6_std60_0120.tex ?
densenoise_fr120_sq6_std60_0121.tex ?
densenoise_fr120_sq6_std60_0122.tex ?
densenoise_fr120_sq6_std60_0123.tex ?
densenoise_fr120_sq6_std60_0124.tex ?
densenoise_fr120_sq6_std60_0125.tex ?
densenoise_fr120_sq6_std60_0126.tex ?
densenoise_fr120_sq6_std60_0127.tex ?
densenoise_fr120_sq6_std60_0128.tex ?
densenoise_fr120_sq6_std60_0129.tex ?
densenoise_fr120_sq6_std60_0130.tex ?
densenoise_fr120_sq6_std60_0131.tex ?
densenoise_fr120_sq6_std60_0132.tex ?
densenoise_fr120_sq6_std60_0133.tex ?
densenoise_fr120_sq6_std60_0134.tex ?
densenoise_fr120_sq6_std60_0135.tex ?
densenoise_fr120_sq6_std60_0136.tex ?
densenoise_fr120_sq6_std60_0137.tex ?
densenoise_fr120_sq6_std60_0138.tex ?
densenoise_fr120_sq6_std60_0139.tex ?
densenoise_fr120_sq6_std60_0140.tex ?
densenoise_fr120_sq6_std60_0141.tex ?
densenoise_fr120_sq6_std60_0142.tex ?
densenoise_fr120_sq6_std60_0143.tex ?
densenoise_fr120_sq6_std60_0144.tex ?
densenoise_fr120_sq6_std60_0145.tex ?
densenoise_fr120_sq6_std60_0146.tex ?
densenoise_fr120_sq6_std60_0147.tex ?
densenoise_fr120_sq6_std60_0148.tex ?
densenoise_fr120_sq6_std60_0149.tex ?
densenoise_fr120_sq6_std60_0150.tex ?
densenoise_fr120_sq6_std60_0151.tex ?
densenoise_fr120_sq6_std60_0152.tex ?
densenoise_fr120_sq6_std60_0153.tex ?
densenoise_fr120_sq6_std60_0154.tex ?
densenoise_fr120_sq6_std60_0155.tex ?
densenoise_fr120_sq6_std60_0156.tex ?
densenoise_fr120_sq6_std60_0157.tex ?
densenoise_fr120_sq6_std60_0158.tex ?
densenoise_fr120_sq6_std60_0159.tex ?
densenoise_fr120_sq6_std60_0160.tex ?
densenoise_fr120_sq6_std60_0161.tex ?
densenoise_fr120_sq6_std60_0162.tex ?
densenoise_fr120_sq6_std60_0163.tex ?
densenoise_fr120_sq6_std60_0164.tex ?
densenoise_fr120_sq6_std60_0165.tex ?
densenoise_fr120_sq6_std60_0166.tex ?
densenoise_fr120_sq6_std60_0167.tex ?
densenoise_fr120_sq6_std60_0168.tex ?
densenoise_fr120_sq6_std60_0169.tex ?
densenoise_fr120_sq6_std60_0170.tex ?
densenoise_fr120_sq6_std60_0171.tex ?
densenoise_fr120_sq6_std60_0172.tex ?
densenoise_fr120_sq6_std60_0173.tex ?
densenoise_fr120_sq6_std60_0174.tex ?
densenoise_fr120_sq6_std60_0175.tex ?
densenoise_fr120_sq6_std60_0176.tex ?
densenoise_fr120_sq6_std60_0177.tex ?
densenoise_fr120_sq6_std60_0178.tex ?
densenoise_fr120_sq6_std60_0179.tex ?
densenoise_fr120_sq6_std60_0180.tex ?
densenoise_fr120_sq6_std60_0181.tex ?
densenoise_fr120_sq6_std60_0182.tex ?
densenoise_fr120_sq6_std60_0183.tex ?
densenoise_fr120_sq6_std60_0184.tex ?
densenoise_fr120_sq6_std60_0185.tex ?
densenoise_fr120_sq6_std60_0186.tex ?
densenoise_fr120_sq6_std60_0187.tex ?
densenoise_fr120_sq6_std60_0188.tex ?
densenoise_fr120_sq6_std60_0189.tex ?
densenoise_fr120_sq6_std60_0190.tex ?
densenoise_fr120_sq6_std60_0191.tex ?
densenoise_fr120_sq6_std60_0192.tex ?
densenoise_fr120_sq6_std60_0193.tex ?
densenoise_fr120_sq6_std60_0194.tex ?
densenoise_fr120_sq6_std60_0195.tex ?
densenoise_fr120_sq6_std60_0196.tex ?
densenoise_fr120_sq6_std60_0197.tex ?
densenoise_fr120_sq6_std60_0198.tex ?
densenoise_fr120_sq6_std60_0199.tex ?
densenoise_fr120_sq6_std60_0200.tex ?
densenoise_fr120_sq6_std60_0201.tex ?
densenoise_fr120_sq6_std60_0202.tex ?
densenoise_fr120_sq6_std60_0203.tex ?
densenoise_fr120_sq6_std60_0204.tex ?
densenoise_fr120_sq6_std60_0205.tex ?
densenoise_fr120_sq6_std60_0206.tex ?
densenoise_fr120_sq6_std60_0207.tex ?
densenoise_fr120_sq6_std60_0208.tex ?
densenoise_fr120_sq6_std60_0209.tex ?
densenoise_fr120_sq6_std60_0210.tex ?
densenoise_fr120_sq6_std60_0211.tex ?
densenoise_fr120_sq6_std60_0212.tex ?
densenoise_fr120_sq6_std60_0213.tex ?
densenoise_fr120_sq6_std60_0214.tex ?
densenoise_fr120_sq6_std60_0215.tex ?
densenoise_fr120_sq6_std60_0216.tex ?
densenoise_fr120_sq6_std60_0217.tex ?
densenoise_fr120_sq6_std60_0218.tex ?
densenoise_fr120_sq6_std60_0219.tex ?
densenoise_fr120_sq6_std60_0220.tex ?
densenoise_fr120_sq6_std60_0221.tex ?
densenoise_fr120_sq6_std60_0222.tex ?
densenoise_fr120_sq6_std60_0223.tex ?
densenoise_fr120_sq6_std60_0224.tex ?
densenoise_fr120_sq6_std60_0225.tex ?
densenoise_fr120_sq6_std60_0226.tex ?
densenoise_fr120_sq6_std60_0227.tex ?
densenoise_fr120_sq6_std60_0228.tex ?
densenoise_fr120_sq6_std60_0229.tex ?
densenoise_fr120_sq6_std60_0230.tex ?
densenoise_fr120_sq6_std60_0231.tex ?
densenoise_fr120_sq6_std60_0232.tex ?
densenoise_fr120_sq6_std60_0233.tex ?
densenoise_fr120_sq6_std60_0234.tex ?
densenoise_fr120_sq6_std60_0235.tex ?
densenoise_fr120_sq6_std60_0236.tex ?
densenoise_fr120_sq6_std60_0237.tex ?
densenoise_fr120_sq6_std60_0238.tex ?
densenoise_fr120_sq6_std60_0239.tex ?
densenoise_fr120_sq6_std60_0240.tex ?
densenoise_fr120_sq6_std60_0241.tex ?
densenoise_fr120_sq6_std60_0242.tex ?
densenoise_fr120_sq6_std60_0243.tex ?
densenoise_fr120_sq6_std60_0244.tex ?
densenoise_fr120_sq6_std60_0245.tex ?
densenoise_fr120_sq6_std60_0246.tex ?
densenoise_fr120_sq6_std60_0247.tex ?
densenoise_fr120_sq6_std60_0248.tex ?
densenoise_fr120_sq6_std60_0249.tex ?
densenoise_fr120_sq6_std60_0250.tex ?
densenoise_fr120_sq6_std60_0251.tex ?
densenoise_fr120_sq6_std60_0252.tex ?
densenoise_fr120_sq6_std60_0253.tex ?
densenoise_fr120_sq6_std60_0254.tex ?
densenoise_fr120_sq6_std60_0255.tex ?
densenoise_fr120_sq6_std60_0256.tex ?
densenoise_fr120_sq6_std60_0257.tex ?
densenoise_fr120_sq6_std60_0258.tex ?
densenoise_fr120_sq6_std60_0259.tex ?
densenoise_fr120_sq6_std60_0260.tex ?
densenoise_fr120_sq6_std60_0261.tex ?
densenoise_fr120_sq6_std60_0262.tex ?
densenoise_fr120_sq6_std60_0263.tex ?
densenoise_fr120_sq6_std60_0264.tex ?
densenoise_fr120_sq6_std60_0265.tex ?
densenoise_fr120_sq6_std60_0266.tex ?
densenoise_fr120_sq6_std60_0267.tex ?
densenoise_fr120_sq6_std60_0268.tex ?
densenoise_fr120_sq6_std60_0269.tex ?
densenoise_fr120_sq6_std60_0270.tex ?
densenoise_fr120_sq6_std60_0271.tex ?
densenoise_fr120_sq6_std60_0272.tex ?
densenoise_fr120_sq6_std60_0273.tex ?
densenoise_fr120_sq6_std60_0274.tex ?
densenoise_fr120_sq6_std60_0275.tex ?
densenoise_fr120_sq6_std60_0276.tex ?
densenoise_fr120_sq6_std60_0277.tex ?
densenoise_fr120_sq6_std60_0278.tex ?
densenoise_fr120_sq6_std60_0279.tex ?
densenoise_fr120_sq6_std60_0280.tex ?
densenoise_fr120_sq6_std60_0281.tex ?
densenoise_fr120_sq6_std60_0282.tex ?
densenoise_fr120_sq6_std60_0283.tex ?
densenoise_fr120_sq6_std60_0284.tex ?
densenoise_fr120_sq6_std60_0285.tex ?
densenoise_fr120_sq6_std60_0286.tex ?
densenoise_fr120_sq6_std60_0287.tex ?
densenoise_fr120_sq6_std60_0288.tex ?
densenoise_fr120_sq6_std60_0289.tex ?
densenoise_fr120_sq6_std60_0290.tex ?
densenoise_fr120_sq6_std60_0291.tex ?
densenoise_fr120_sq6_std60_0292.tex ?
densenoise_fr120_sq6_std60_0293.tex ?
densenoise_fr120_sq6_std60_0294.tex ?
densenoise_fr120_sq6_std60_0295.tex ?
densenoise_fr120_sq6_std60_0296.tex ?
densenoise_fr120_sq6_std60_0297.tex ?
densenoise_fr120_sq6_std60_0298.tex ?
densenoise_fr120_sq6_std60_0299.tex ?
densenoise_fr120_sq6_std60_0300.tex ?
